…
``` r
lakes %>%
  clean_names() %>%
  distinct(water_body, pollutant, county_u_d, .keep_all = TRUE) %>%
  group_by(water_body) %>% 
  summarize(count = n(), county = first(county_u_d)) -> lakes

lakes
```

    ## # A tibble: 55 x 3
    ##    water_body                 count county        
    ##    <chr>                      <int> <chr>         
    ##  1 August A Busch Lake No. 37     1 St. Charles   
    ##  2 Bee Tree Lake                  1 St. Louis     
    ##  3 Belcher Branch Lake            1 Buchanan      
    ##  4 Bowling Green Lake - Old       3 Pike          
    ##  5 Buffalo Bill Lake              1 DeKalb        
    ##  6 Busch W.A. No. 35 Lake         1 St. Charles   
    ##  7 Chaumiere Lake                 1 Clay          
    ##  8 Clearwater Lake                3 Wayne/Reynolds
    ##  9 Coot Lake                      1 Jackson       
    ## 10 Cottontail Lake                1 Jackson       
    ## # … with 45 more rows
…
We can create a new list-col by using the `stringr` package’s
`str_split()` function, which will remove any forward slashes that are
found and convert `Wayne/Reynolds` into `c("Wayne", "Reynolds")`. This
creates, in essence, an object within an object:

``` r
mutate(lakes, county = str_split(string = county, pattern = "/"))
```

    ## # A tibble: 55 x 3
    ##    water_body                 count county   
    ##    <chr>                      <int> <list>   
    ##  1 August A Busch Lake No. 37     1 <chr [1]>
    ##  2 Bee Tree Lake                  1 <chr [1]>
    ##  3 Belcher Branch Lake            1 <chr [1]>
    ##  4 Bowling Green Lake - Old       3 <chr [1]>
    ##  5 Buffalo Bill Lake              1 <chr [1]>
    ##  6 Busch W.A. No. 35 Lake         1 <chr [1]>
    ##  7 Chaumiere Lake                 1 <chr [1]>
    ##  8 Clearwater Lake                3 <chr [2]>
    ##  9 Coot Lake                      1 <chr [1]>
    ## 10 Cottontail Lake                1 <chr [1]>
    ## # … with 45 more rows

It is better explored by viewing the data.

Once we have our list-col, we can convert each element of `county` into
its on row using the `tidyr` package’s `unnest()` function:

``` r
lakes %>%
  mutate(county = str_split(string = county, pattern = "/")) %>%
  unnest()
```

    ## # A tibble: 56 x 3
    ##    water_body                 count county     
    ##    <chr>                      <int> <chr>      
    ##  1 August A Busch Lake No. 37     1 St. Charles
    ##  2 Bee Tree Lake                  1 St. Louis  
    ##  3 Belcher Branch Lake            1 Buchanan   
    ##  4 Bowling Green Lake - Old       3 Pike       
    ##  5 Buffalo Bill Lake              1 DeKalb     
    ##  6 Busch W.A. No. 35 Lake         1 St. Charles
    ##  7 Chaumiere Lake                 1 Clay       
    ##  8 Clearwater Lake                3 Wayne      
    ##  9 Clearwater Lake                3 Reynolds   
    ## 10 Coot Lake                      1 Jackson    
    ## # … with 46 more rows
…
<!-- end list -->

``` r
lakes %>%
  mutate(county = str_split(string = county, pattern = "/")) %>%
  unnest() %>%
  group_by(county) %>%
  summarise(
    lakes = n(), 
    lakes_avg = mean(count)) -> lakesByCounty

lakesByCounty
```

    ## # A tibble: 40 x 3
    ##    county         lakes lakes_avg
    ##    <chr>          <int>     <dbl>
    ##  1 Adair              2       3  
    ##  2 Boone              2       1.5
    ##  3 Buchanan           1       1  
    ##  4 Cape Girardeau     1       1  
    ##  5 Cass               1       1  
    ##  6 Clark              1       3  
    ##  7 Clay               1       1  
    ##  8 Cole               2       1  
    ##  9 DeKalb             1       1  
    ## 10 Douglas            1       3  
    ## # … with 30 more rows
…
